------------------------------------------------------------------------
r1004145 | jriddell | 2009-07-29 12:34:54 +0000 (Wed, 29 Jul 2009) | 1 line

load translations catalogue
------------------------------------------------------------------------
