------------------------------------------------------------------------
r1226706 | scripty | 2011-04-02 01:34:05 +1300 (Sat, 02 Apr 2011) | 1 line

SVN_SILENT made messages (.po file)
------------------------------------------------------------------------
r1226707 | scripty | 2011-04-02 01:55:58 +1300 (Sat, 02 Apr 2011) | 1 line

SVN_SILENT made messages (x-test)
------------------------------------------------------------------------
r1226713 | scripty | 2011-04-02 03:30:55 +1300 (Sat, 02 Apr 2011) | 1 line

check_po_files
------------------------------------------------------------------------
r1226719 | fzenith | 2011-04-02 05:00:59 +1300 (Sat, 02 Apr 2011) | 2 lines

Update

------------------------------------------------------------------------
r1226727 | jferrer | 2011-04-02 06:17:07 +1300 (Sat, 02 Apr 2011) | 2 lines

Stable translated at 100%

------------------------------------------------------------------------
r1226729 | yurchor | 2011-04-02 07:25:24 +1300 (Sat, 02 Apr 2011) | 1 line

SVN_SILENT Ukrainian translation update for stable
------------------------------------------------------------------------
r1226743 | zpintar | 2011-04-02 14:33:51 +1300 (Sat, 02 Apr 2011) | 1 line

Updated Croatian translations for kde4-stable.
------------------------------------------------------------------------
r1226749 | alvarenga | 2011-04-02 17:36:44 +1300 (Sat, 02 Apr 2011) | 1 line

[KDE-pt_BR]
------------------------------------------------------------------------
r1226848 | scripty | 2011-04-03 00:12:45 +1300 (Sun, 03 Apr 2011) | 1 line

SVN_SILENT made messages (desktop*.pot file committed)
------------------------------------------------------------------------
r1226851 | fric | 2011-04-03 00:30:15 +1300 (Sun, 03 Apr 2011) | 1 line

Updated Slovak translation
------------------------------------------------------------------------
r1226858 | scripty | 2011-04-03 01:47:08 +1300 (Sun, 03 Apr 2011) | 1 line

SVN_SILENT made messages (.po file)
------------------------------------------------------------------------
r1226876 | yurchor | 2011-04-03 06:06:35 +1200 (Sun, 03 Apr 2011) | 1 line

SVN_SILENT Ukrainian translation update for stable
------------------------------------------------------------------------
r1226889 | fdekruijf | 2011-04-03 07:49:12 +1200 (Sun, 03 Apr 2011) | 1 line

update
------------------------------------------------------------------------
r1226890 | sairan | 2011-04-03 08:14:40 +1200 (Sun, 03 Apr 2011) | 1 line

SVN_SILENT translations update
------------------------------------------------------------------------
r1226907 | sairan | 2011-04-03 10:59:27 +1200 (Sun, 03 Apr 2011) | 1 line

SVN_SILENT translations update
------------------------------------------------------------------------
r1226914 | zpintar | 2011-04-03 13:35:54 +1200 (Sun, 03 Apr 2011) | 1 line

Updated Croatian translations for kde4-stable.
------------------------------------------------------------------------
r1226919 | mwiese | 2011-04-03 17:39:20 +1200 (Sun, 03 Apr 2011) | 1 line

Translation and maintenance
------------------------------------------------------------------------
r1226929 | ilic | 2011-04-03 20:21:15 +1200 (Sun, 03 Apr 2011) | 1 line

Merge.
------------------------------------------------------------------------
r1226937 | scripty | 2011-04-03 22:45:09 +1200 (Sun, 03 Apr 2011) | 1 line

SVN_SILENT made messages (.pot file)
------------------------------------------------------------------------
r1226942 | zepires | 2011-04-03 23:34:02 +1200 (Sun, 03 Apr 2011) | 1 line

Updates on BRANCH for now
------------------------------------------------------------------------
r1226960 | scripty | 2011-04-04 00:25:41 +1200 (Mon, 04 Apr 2011) | 1 line

SVN_SILENT made messages (.po file)
------------------------------------------------------------------------
r1226965 | glentadakis | 2011-04-04 00:49:09 +1200 (Mon, 04 Apr 2011) | 2 lines

Update translation

------------------------------------------------------------------------
r1226967 | kenkovaa | 2011-04-04 01:51:57 +1200 (Mon, 04 Apr 2011) | 2 lines

Updates from Tommi

------------------------------------------------------------------------
r1226970 | aspotashev | 2011-04-04 04:30:05 +1200 (Mon, 04 Apr 2011) | 2 lines

SVN_SILENT Update

------------------------------------------------------------------------
r1226971 | asserhal | 2011-04-04 04:59:04 +1200 (Mon, 04 Apr 2011) | 1 line

SVN_SILENT updated translations
------------------------------------------------------------------------
r1226989 | igungor | 2011-04-04 09:00:10 +1200 (Mon, 04 Apr 2011) | 1 line

Fix mismatched tag
------------------------------------------------------------------------
r1226994 | bellaperez | 2011-04-04 09:27:39 +1200 (Mon, 04 Apr 2011) | 1 line

First file over my kdm work.
------------------------------------------------------------------------
r1227007 | sairan | 2011-04-04 10:56:34 +1200 (Mon, 04 Apr 2011) | 1 line

SVN_SILENT translations update
------------------------------------------------------------------------
r1227010 | sairan | 2011-04-04 11:40:24 +1200 (Mon, 04 Apr 2011) | 1 line

SVN_SILENT translations update
------------------------------------------------------------------------
r1227020 | zpintar | 2011-04-04 13:35:04 +1200 (Mon, 04 Apr 2011) | 1 line

Updated Croatian translations for kde4-stable.
------------------------------------------------------------------------
r1227031 | alvarenga | 2011-04-04 15:05:36 +1200 (Mon, 04 Apr 2011) | 1 line

[KDE-pt_BR]
------------------------------------------------------------------------
r1227036 | mwiese | 2011-04-04 18:01:31 +1200 (Mon, 04 Apr 2011) | 1 line

Translation and maintenance
------------------------------------------------------------------------
r1227038 | aspotashev | 2011-04-04 18:29:32 +1200 (Mon, 04 Apr 2011) | 2 lines

SVN_SILENT Update

------------------------------------------------------------------------
r1227044 | igungor | 2011-04-04 19:26:07 +1200 (Mon, 04 Apr 2011) | 1 line

Update choqok translation
------------------------------------------------------------------------
r1227047 | laane | 2011-04-04 19:58:15 +1200 (Mon, 04 Apr 2011) | 4 lines


Uuendused.


------------------------------------------------------------------------
r1227050 | sora | 2011-04-04 20:40:51 +1200 (Mon, 04 Apr 2011) | 1 line

added translations
------------------------------------------------------------------------
r1227053 | awolf | 2011-04-04 21:25:59 +1200 (Mon, 04 Apr 2011) | 1 line

SVN_SILENT Update KStars translation
------------------------------------------------------------------------
r1227060 | scripty | 2011-04-04 22:30:57 +1200 (Mon, 04 Apr 2011) | 1 line

SVN_SILENT made messages (.pot file)
------------------------------------------------------------------------
r1227071 | scripty | 2011-04-05 00:19:52 +1200 (Tue, 05 Apr 2011) | 1 line

SVN_SILENT made messages (.po file)
------------------------------------------------------------------------
r1227075 | scripty | 2011-04-05 00:40:11 +1200 (Tue, 05 Apr 2011) | 1 line

SVN_SILENT made messages (x-test)
------------------------------------------------------------------------
r1227077 | schwarzer | 2011-04-05 02:05:00 +1200 (Tue, 05 Apr 2011) | 1 line

Fix typo.
------------------------------------------------------------------------
r1227110 | markuss | 2011-04-05 07:56:09 +1200 (Tue, 05 Apr 2011) | 1 line

Updated German translation a bit as discussed on the mailing list
------------------------------------------------------------------------
r1227112 | huftis | 2011-04-05 07:58:11 +1200 (Tue, 05 Apr 2011) | 1 line

Updated Norwegian Nynorsk translations for kde4-stable.
------------------------------------------------------------------------
r1227119 | huftis | 2011-04-05 08:40:18 +1200 (Tue, 05 Apr 2011) | 1 line

Updated Northern Sami translations for kde4-stable.
------------------------------------------------------------------------
r1227123 | sairan | 2011-04-05 09:26:19 +1200 (Tue, 05 Apr 2011) | 1 line

SVN_SILENT translations update
------------------------------------------------------------------------
r1227125 | sairan | 2011-04-05 10:58:02 +1200 (Tue, 05 Apr 2011) | 1 line

SVN_SILENT translations update
------------------------------------------------------------------------
r1227128 | repinc | 2011-04-05 12:03:07 +1200 (Tue, 05 Apr 2011) | 2 lines

Updated Slovenian translations

------------------------------------------------------------------------
r1227133 | zpintar | 2011-04-05 13:31:51 +1200 (Tue, 05 Apr 2011) | 1 line

Updated Croatian translations for kde4-stable.
------------------------------------------------------------------------
r1227148 | pelcak | 2011-04-05 21:54:13 +1200 (Tue, 05 Apr 2011) | 1 line

Update from Summit
------------------------------------------------------------------------
r1227155 | scripty | 2011-04-06 00:03:20 +1200 (Wed, 06 Apr 2011) | 1 line

SVN_SILENT made messages (.pot file)
------------------------------------------------------------------------
r1227157 | schwarzer | 2011-04-06 00:58:47 +1200 (Wed, 06 Apr 2011) | 1 line

Fix unit symbol.
------------------------------------------------------------------------
r1227159 | schwarzer | 2011-04-06 01:19:22 +1200 (Wed, 06 Apr 2011) | 1 line

Fix unit symbol.
------------------------------------------------------------------------
r1227160 | scripty | 2011-04-06 01:44:59 +1200 (Wed, 06 Apr 2011) | 1 line

SVN_SILENT made messages (.po file)
------------------------------------------------------------------------
r1227162 | pelcak | 2011-04-06 02:16:42 +1200 (Wed, 06 Apr 2011) | 1 line

Update from Summit
------------------------------------------------------------------------
r1227166 | yurchor | 2011-04-06 02:43:30 +1200 (Wed, 06 Apr 2011) | 1 line

SVN_SILENT Ukrainian translation update for stable
------------------------------------------------------------------------
r1227182 | renard | 2011-04-06 09:25:01 +1200 (Wed, 06 Apr 2011) | 2 lines

Mise à jour par Geoffray Levasseur

------------------------------------------------------------------------
r1227186 | sairan | 2011-04-06 10:17:31 +1200 (Wed, 06 Apr 2011) | 1 line

SVN_SILENT translations update
------------------------------------------------------------------------
r1227190 | zpintar | 2011-04-06 13:31:23 +1200 (Wed, 06 Apr 2011) | 1 line

Updated Croatian translations for kde4-stable.
------------------------------------------------------------------------
r1227195 | glentadakis | 2011-04-06 17:04:19 +1200 (Wed, 06 Apr 2011) | 2 lines

Update translation

------------------------------------------------------------------------
r1227203 | repinc | 2011-04-06 20:33:43 +1200 (Wed, 06 Apr 2011) | 2 lines

Updated Slovenian translations

------------------------------------------------------------------------
r1227215 | scripty | 2011-04-06 22:32:39 +1200 (Wed, 06 Apr 2011) | 1 line

SVN_SILENT made messages (.pot file)
------------------------------------------------------------------------
r1227216 | scripty | 2011-04-06 22:34:14 +1200 (Wed, 06 Apr 2011) | 1 line

SVN_SILENT made messages (desktop*.pot file committed)
------------------------------------------------------------------------
r1227221 | scripty | 2011-04-07 00:24:04 +1200 (Thu, 07 Apr 2011) | 1 line

SVN_SILENT made messages (.po file)
------------------------------------------------------------------------
r1227222 | scripty | 2011-04-07 00:46:01 +1200 (Thu, 07 Apr 2011) | 1 line

SVN_SILENT made messages (x-test)
------------------------------------------------------------------------
r1227236 | asserhal | 2011-04-07 04:50:35 +1200 (Thu, 07 Apr 2011) | 1 line

SVN_SILENT updated translations
------------------------------------------------------------------------
r1227237 | yurchor | 2011-04-07 05:01:29 +1200 (Thu, 07 Apr 2011) | 1 line

SVN_SILENT Ukrainian translation update for stable
------------------------------------------------------------------------
r1227238 | schwarzer | 2011-04-07 05:28:34 +1200 (Thu, 07 Apr 2011) | 1 line

Translate new string
------------------------------------------------------------------------
r1227242 | yurchor | 2011-04-07 06:51:21 +1200 (Thu, 07 Apr 2011) | 1 line

SVN_SILENT Ukrainian translation update for stable
------------------------------------------------------------------------
r1227243 | mrybczyn | 2011-04-07 07:15:20 +1200 (Thu, 07 Apr 2011) | 1 line

Translation update (Katarzyna Gierlach)
------------------------------------------------------------------------
r1227249 | conet | 2011-04-07 10:02:39 +1200 (Thu, 07 Apr 2011) | 1 line

Update Romanian translation by Grigore Moldovan.
------------------------------------------------------------------------
r1227250 | sairan | 2011-04-07 10:07:32 +1200 (Thu, 07 Apr 2011) | 1 line

SVN_SILENT translations update
------------------------------------------------------------------------
r1227252 | conet | 2011-04-07 10:20:52 +1200 (Thu, 07 Apr 2011) | 1 line


------------------------------------------------------------------------
r1227255 | franklin | 2011-04-07 11:45:00 +1200 (Thu, 07 Apr 2011) | 1 line

20110407 committed by Franklin
------------------------------------------------------------------------
r1227258 | okushi | 2011-04-07 12:42:06 +1200 (Thu, 07 Apr 2011) | 1 line

SVN_SILENT: summit merge
------------------------------------------------------------------------
r1227260 | franklin | 2011-04-07 13:09:33 +1200 (Thu, 07 Apr 2011) | 1 line

20110407 committed by Franklin
------------------------------------------------------------------------
r1227266 | okushi | 2011-04-07 13:36:53 +1200 (Thu, 07 Apr 2011) | 1 line

SVN_SILENT: summit scatter kdegames
------------------------------------------------------------------------
r1227267 | zpintar | 2011-04-07 13:37:01 +1200 (Thu, 07 Apr 2011) | 1 line

Updated Croatian translations for kde4-stable.
------------------------------------------------------------------------
r1227281 | sora | 2011-04-07 20:13:56 +1200 (Thu, 07 Apr 2011) | 1 line

fixed fuzzy
------------------------------------------------------------------------
r1227287 | zepires | 2011-04-07 20:52:41 +1200 (Thu, 07 Apr 2011) | 1 line

Updates on BRANCH for now
------------------------------------------------------------------------
r1227295 | ecuadra | 2011-04-07 22:29:26 +1200 (Thu, 07 Apr 2011) | 2 lines

SVN_SILENT Spanish translation update by Javier Viñal
CC_MAIL: fjvinal@gmail.com
------------------------------------------------------------------------
r1227297 | scripty | 2011-04-07 22:35:26 +1200 (Thu, 07 Apr 2011) | 1 line

SVN_SILENT made messages (.pot file)
------------------------------------------------------------------------
r1227298 | scripty | 2011-04-07 22:36:59 +1200 (Thu, 07 Apr 2011) | 1 line

SVN_SILENT made messages (desktop*.pot file committed)
------------------------------------------------------------------------
r1227302 | lueck | 2011-04-07 22:49:10 +1200 (Thu, 07 Apr 2011) | 1 line

typo + strange translation fix
------------------------------------------------------------------------
r1227311 | scripty | 2011-04-08 00:27:02 +1200 (Fri, 08 Apr 2011) | 1 line

SVN_SILENT made messages (.po file)
------------------------------------------------------------------------
r1227324 | fdekruijf | 2011-04-08 05:15:09 +1200 (Fri, 08 Apr 2011) | 1 line

update
------------------------------------------------------------------------
r1227329 | aacid | 2011-04-08 06:57:12 +1200 (Fri, 08 Apr 2011) | 2 lines

kdeedu from git

------------------------------------------------------------------------
r1227330 | aacid | 2011-04-08 07:29:47 +1200 (Fri, 08 Apr 2011) | 2 lines

git split

------------------------------------------------------------------------
r1227341 | sairan | 2011-04-08 10:54:09 +1200 (Fri, 08 Apr 2011) | 1 line

SVN_SILENT translations update
------------------------------------------------------------------------
r1227343 | sairan | 2011-04-08 11:03:59 +1200 (Fri, 08 Apr 2011) | 1 line

SVN_SILENT translations update
------------------------------------------------------------------------
r1227353 | zpintar | 2011-04-08 13:27:17 +1200 (Fri, 08 Apr 2011) | 1 line

Updated Croatian translations for kde4-stable.
------------------------------------------------------------------------
r1227369 | lueck | 2011-04-08 19:31:01 +1200 (Fri, 08 Apr 2011) | 1 line

typo fix it->ist
------------------------------------------------------------------------
r1227376 | ilic | 2011-04-08 20:14:40 +1200 (Fri, 08 Apr 2011) | 1 line

Merge.
------------------------------------------------------------------------
r1227389 | pino | 2011-04-09 00:05:10 +1200 (Sat, 09 Apr 2011) | 2 lines

take the correct branch for marble

------------------------------------------------------------------------
r1227390 | lueck | 2011-04-09 00:08:23 +1200 (Sat, 09 Apr 2011) | 1 line

adapt doc paths for kdeedu apps to git
------------------------------------------------------------------------
r1227393 | scripty | 2011-04-09 00:52:50 +1200 (Sat, 09 Apr 2011) | 1 line

SVN_SILENT made messages (.pot file)
------------------------------------------------------------------------
r1227394 | scripty | 2011-04-09 00:54:25 +1200 (Sat, 09 Apr 2011) | 1 line

SVN_SILENT made messages (desktop*.pot file committed)
------------------------------------------------------------------------
r1227401 | scripty | 2011-04-09 02:53:01 +1200 (Sat, 09 Apr 2011) | 1 line

SVN_SILENT made messages (.po file)
------------------------------------------------------------------------
r1227402 | pino | 2011-04-09 03:11:10 +1200 (Sat, 09 Apr 2011) | 2 lines

remove obsolete translations from the new split desktop .po files

------------------------------------------------------------------------
r1227403 | scripty | 2011-04-09 03:22:27 +1200 (Sat, 09 Apr 2011) | 1 line

SVN_SILENT made messages (x-test)
------------------------------------------------------------------------
r1227404 | jferrer | 2011-04-09 03:30:51 +1200 (Sat, 09 Apr 2011) | 2 lines

Catalan translations at 100%

------------------------------------------------------------------------
r1227416 | conet | 2011-04-09 09:29:32 +1200 (Sat, 09 Apr 2011) | 1 line

Update Romanian translation.
------------------------------------------------------------------------
r1227418 | fdekruijf | 2011-04-09 10:40:44 +1200 (Sat, 09 Apr 2011) | 1 line

update
------------------------------------------------------------------------
r1227420 | sairan | 2011-04-09 10:57:13 +1200 (Sat, 09 Apr 2011) | 1 line

SVN_SILENT translations update
------------------------------------------------------------------------
r1227421 | sairan | 2011-04-09 11:14:19 +1200 (Sat, 09 Apr 2011) | 1 line

SVN_SILENT translations update
------------------------------------------------------------------------
r1227439 | zpintar | 2011-04-09 13:36:22 +1200 (Sat, 09 Apr 2011) | 1 line

Updated Croatian translations for kde4-stable.
------------------------------------------------------------------------
r1227448 | okushi | 2011-04-09 15:29:50 +1200 (Sat, 09 Apr 2011) | 1 line

SVN_SILENT: summit merge
------------------------------------------------------------------------
r1227450 | okushi | 2011-04-09 16:26:41 +1200 (Sat, 09 Apr 2011) | 1 line

SVN_SILENT: summit scatter kdesdk
------------------------------------------------------------------------
r1227462 | conet | 2011-04-09 20:35:36 +1200 (Sat, 09 Apr 2011) | 1 line

Update Romanian translation.
------------------------------------------------------------------------
r1227465 | conet | 2011-04-09 21:05:51 +1200 (Sat, 09 Apr 2011) | 1 line

Update Romanian translation.
------------------------------------------------------------------------
r1227490 | scripty | 2011-04-09 23:59:52 +1200 (Sat, 09 Apr 2011) | 1 line

SVN_SILENT made messages (.pot file)
------------------------------------------------------------------------
r1227494 | fdekruijf | 2011-04-10 00:38:57 +1200 (Sun, 10 Apr 2011) | 1 line

update contactlijst->contactenlijst
------------------------------------------------------------------------
r1227495 | scripty | 2011-04-10 01:41:54 +1200 (Sun, 10 Apr 2011) | 1 line

SVN_SILENT made messages (.po file)
------------------------------------------------------------------------
r1227497 | jferrer | 2011-04-10 01:57:04 +1200 (Sun, 10 Apr 2011) | 2 lines

Updates by Josep Ma. Ferrer

------------------------------------------------------------------------
r1227503 | jferrer | 2011-04-10 06:38:53 +1200 (Sun, 10 Apr 2011) | 3 lines

Updates by Josep Ma. Ferrer


------------------------------------------------------------------------
r1227512 | fdekruijf | 2011-04-10 09:29:52 +1200 (Sun, 10 Apr 2011) | 1 line

update
------------------------------------------------------------------------
r1227519 | sairan | 2011-04-10 12:46:28 +1200 (Sun, 10 Apr 2011) | 1 line

SVN_SILENT translations update
------------------------------------------------------------------------
r1227526 | zpintar | 2011-04-10 13:34:50 +1200 (Sun, 10 Apr 2011) | 1 line

Updated Croatian translations for kde4-stable.
------------------------------------------------------------------------
r1227529 | alvarenga | 2011-04-10 14:24:08 +1200 (Sun, 10 Apr 2011) | 1 line

[KDE-pt_BR]
------------------------------------------------------------------------
r1227542 | mwiese | 2011-04-10 19:17:54 +1200 (Sun, 10 Apr 2011) | 1 line

Translation and maintenance
------------------------------------------------------------------------
r1227546 | yurchor | 2011-04-10 20:09:21 +1200 (Sun, 10 Apr 2011) | 1 line

SVN_SILENT Ukrainian translation update for stable
------------------------------------------------------------------------
r1227547 | ltoscano | 2011-04-10 20:09:21 +1200 (Sun, 10 Apr 2011) | 4 lines

Translation updates by Vincenzo Reale.

CCMAIL: smart2128@baslug.org

------------------------------------------------------------------------
r1227552 | scripty | 2011-04-10 23:03:57 +1200 (Sun, 10 Apr 2011) | 1 line

SVN_SILENT made messages (.pot file)
------------------------------------------------------------------------
r1227564 | renard | 2011-04-11 00:08:42 +1200 (Mon, 11 Apr 2011) | 2 lines

Mise à jour par Geoffray Levasseur

------------------------------------------------------------------------
r1227566 | glentadakis | 2011-04-11 00:21:32 +1200 (Mon, 11 Apr 2011) | 2 lines

Update translation by Nikolaos Pantazis

------------------------------------------------------------------------
r1227568 | scripty | 2011-04-11 00:42:44 +1200 (Mon, 11 Apr 2011) | 1 line

SVN_SILENT made messages (.po file)
------------------------------------------------------------------------
r1227573 | scripty | 2011-04-11 01:09:44 +1200 (Mon, 11 Apr 2011) | 1 line

SVN_SILENT made messages (x-test)
------------------------------------------------------------------------
r1227582 | okushi | 2011-04-11 05:36:14 +1200 (Mon, 11 Apr 2011) | 1 line

SVN_SILENT: summit merge
------------------------------------------------------------------------
r1227591 | okushi | 2011-04-11 08:05:23 +1200 (Mon, 11 Apr 2011) | 1 line

SVN_SILENT: summit scatter kdesdk
------------------------------------------------------------------------
r1227593 | okushi | 2011-04-11 08:11:49 +1200 (Mon, 11 Apr 2011) | 1 line

SVN_SILENT: summit scatter kdemultimedia
------------------------------------------------------------------------
r1227595 | okushi | 2011-04-11 08:31:35 +1200 (Mon, 11 Apr 2011) | 1 line

SVN_SILENT: summit scatter kdelibs
------------------------------------------------------------------------
r1227600 | okushi | 2011-04-11 09:39:43 +1200 (Mon, 11 Apr 2011) | 1 line

SVN_SILENT: summit scatter extragear-multimedia
------------------------------------------------------------------------
r1227604 | sairan | 2011-04-11 09:49:29 +1200 (Mon, 11 Apr 2011) | 1 line

SVN_SILENT translations update
------------------------------------------------------------------------
r1227606 | sairan | 2011-04-11 10:05:21 +1200 (Mon, 11 Apr 2011) | 1 line

add Kazakh translations
------------------------------------------------------------------------
r1227612 | sairan | 2011-04-11 11:06:50 +1200 (Mon, 11 Apr 2011) | 1 line

SVN_SILENT translations update
------------------------------------------------------------------------
r1227620 | zpintar | 2011-04-11 13:28:51 +1200 (Mon, 11 Apr 2011) | 1 line

Updated Croatian translations for kde4-stable.
------------------------------------------------------------------------
r1227634 | laane | 2011-04-11 18:48:23 +1200 (Mon, 11 Apr 2011) | 4 lines


Uuendused + nagu mõnigi kord, andis update_xml jälle ootamatult tulemusi...


------------------------------------------------------------------------
r1227638 | pelcak | 2011-04-11 19:59:08 +1200 (Mon, 11 Apr 2011) | 1 line

Update from Summit
------------------------------------------------------------------------
r1227645 | scripty | 2011-04-11 23:23:19 +1200 (Mon, 11 Apr 2011) | 1 line

SVN_SILENT made messages (.pot file)
------------------------------------------------------------------------
r1227650 | scripty | 2011-04-12 01:15:30 +1200 (Tue, 12 Apr 2011) | 1 line

SVN_SILENT made messages (.po file)
------------------------------------------------------------------------
r1227667 | glentadakis | 2011-04-12 06:35:09 +1200 (Tue, 12 Apr 2011) | 2 lines

Update translation

------------------------------------------------------------------------
r1227673 | bellaperez | 2011-04-12 09:03:27 +1200 (Tue, 12 Apr 2011) | 3 lines

Solve typos with a link:
http://l10n.kde.org/check-kde-tp-results/stable/
CCMAIL: txemaq@gmail.com
------------------------------------------------------------------------
r1227674 | sairan | 2011-04-12 10:12:47 +1200 (Tue, 12 Apr 2011) | 1 line

SVN_SILENT translations update
------------------------------------------------------------------------
r1227675 | sairan | 2011-04-12 10:57:13 +1200 (Tue, 12 Apr 2011) | 1 line

SVN_SILENT translations update
------------------------------------------------------------------------
r1227680 | zpintar | 2011-04-12 13:34:27 +1200 (Tue, 12 Apr 2011) | 1 line

Updated Croatian translations for kde4-stable.
------------------------------------------------------------------------
r1227686 | mwiese | 2011-04-12 18:03:40 +1200 (Tue, 12 Apr 2011) | 1 line

Translation and maintenance
------------------------------------------------------------------------
r1227775 | igungor | 2011-04-12 21:21:38 +1200 (Tue, 12 Apr 2011) | 1 line

Dokümantasyon -> Belgelendirme
------------------------------------------------------------------------
r1227778 | pelcak | 2011-04-12 21:56:42 +1200 (Tue, 12 Apr 2011) | 1 line

Update from Summit
------------------------------------------------------------------------
r1227785 | sora | 2011-04-12 23:18:37 +1200 (Tue, 12 Apr 2011) | 1 line

fixed translations
------------------------------------------------------------------------
r1227787 | sora | 2011-04-12 23:30:13 +1200 (Tue, 12 Apr 2011) | 1 line

fixed translations
------------------------------------------------------------------------
r1227800 | scripty | 2011-04-13 01:00:16 +1200 (Wed, 13 Apr 2011) | 1 line

SVN_SILENT made messages (.pot file)
------------------------------------------------------------------------
r1227801 | scripty | 2011-04-13 01:01:49 +1200 (Wed, 13 Apr 2011) | 1 line

SVN_SILENT made messages (desktop*.pot file committed)
------------------------------------------------------------------------
r1227803 | scripty | 2011-04-13 02:34:22 +1200 (Wed, 13 Apr 2011) | 1 line

SVN_SILENT made messages (.po file)
------------------------------------------------------------------------
r1227811 | lliehu | 2011-04-13 06:01:04 +1200 (Wed, 13 Apr 2011) | 2 lines

l10n/fi: Updates

------------------------------------------------------------------------
r1227819 | lueck | 2011-04-13 08:50:21 +1200 (Wed, 13 Apr 2011) | 1 line

proofreading kcm filetypes doc translation
------------------------------------------------------------------------
r1227821 | renard | 2011-04-13 08:55:03 +1200 (Wed, 13 Apr 2011) | 2 lines

Plage actuelle => Page actuelle

------------------------------------------------------------------------
r1227823 | renard | 2011-04-13 09:01:44 +1200 (Wed, 13 Apr 2011) | 2 lines

small fixes

------------------------------------------------------------------------
r1227825 | sairan | 2011-04-13 09:16:24 +1200 (Wed, 13 Apr 2011) | 1 line

SVN_SILENT translations update
------------------------------------------------------------------------
r1227835 | zpintar | 2011-04-13 13:34:19 +1200 (Wed, 13 Apr 2011) | 1 line

Updated Croatian translations for kde4-stable.
------------------------------------------------------------------------
r1227848 | ilic | 2011-04-13 19:49:02 +1200 (Wed, 13 Apr 2011) | 1 line

Merge.
------------------------------------------------------------------------
r1227857 | scripty | 2011-04-13 23:24:13 +1200 (Wed, 13 Apr 2011) | 1 line

SVN_SILENT made messages (.pot file)
------------------------------------------------------------------------
r1227859 | igungor | 2011-04-14 00:53:51 +1200 (Thu, 14 Apr 2011) | 1 line

fix typo.
------------------------------------------------------------------------
r1227862 | scripty | 2011-04-14 01:13:58 +1200 (Thu, 14 Apr 2011) | 1 line

SVN_SILENT made messages (.po file)
------------------------------------------------------------------------
r1227866 | pelcak | 2011-04-14 02:17:13 +1200 (Thu, 14 Apr 2011) | 1 line

Update from Summit
------------------------------------------------------------------------
r1227874 | renard | 2011-04-14 04:08:31 +1200 (Thu, 14 Apr 2011) | 2 lines

Tabs is for "onglet", not "tabulation" in this context

------------------------------------------------------------------------
r1227895 | sairan | 2011-04-14 10:15:16 +1200 (Thu, 14 Apr 2011) | 1 line

SVN_SILENT translations update
------------------------------------------------------------------------
r1227901 | zpintar | 2011-04-14 13:34:27 +1200 (Thu, 14 Apr 2011) | 1 line

Updated Croatian translations for kde4-stable.
------------------------------------------------------------------------
r1227904 | okushi | 2011-04-14 16:36:53 +1200 (Thu, 14 Apr 2011) | 1 line

SVN_SILENT: summit merge
------------------------------------------------------------------------
r1227914 | pelcak | 2011-04-14 22:03:01 +1200 (Thu, 14 Apr 2011) | 1 line

Update from Summit
------------------------------------------------------------------------
r1227919 | scripty | 2011-04-14 23:59:47 +1200 (Thu, 14 Apr 2011) | 1 line

SVN_SILENT made messages (.pot file)
------------------------------------------------------------------------
r1227920 | scripty | 2011-04-15 00:01:23 +1200 (Fri, 15 Apr 2011) | 1 line

SVN_SILENT made messages (desktop*.pot file committed)
------------------------------------------------------------------------
r1227921 | kristofk | 2011-04-15 00:21:15 +1200 (Fri, 15 Apr 2011) | 1 line

SVN_SILENT Hungarian translation updated
------------------------------------------------------------------------
r1227923 | scripty | 2011-04-15 01:58:10 +1200 (Fri, 15 Apr 2011) | 1 line

SVN_SILENT made messages (.po file)
------------------------------------------------------------------------
r1227934 | kristofk | 2011-04-15 03:28:37 +1200 (Fri, 15 Apr 2011) | 1 line

SVN_SILENT Hungarian translation updated
------------------------------------------------------------------------
r1227953 | ilic | 2011-04-15 08:44:45 +1200 (Fri, 15 Apr 2011) | 1 line

Summit scatter.
------------------------------------------------------------------------
r1227956 | yurchor | 2011-04-15 08:59:25 +1200 (Fri, 15 Apr 2011) | 1 line

SVN_SILENT Ukrainian translation update for stable
------------------------------------------------------------------------
r1227968 | sairan | 2011-04-15 10:50:56 +1200 (Fri, 15 Apr 2011) | 1 line

SVN_SILENT translations update
------------------------------------------------------------------------
r1227969 | sairan | 2011-04-15 11:31:24 +1200 (Fri, 15 Apr 2011) | 1 line

SVN_SILENT translations update
------------------------------------------------------------------------
r1227975 | zpintar | 2011-04-15 13:35:59 +1200 (Fri, 15 Apr 2011) | 1 line

Updated Croatian translations for kde4-stable.
------------------------------------------------------------------------
r1227981 | okushi | 2011-04-15 16:06:27 +1200 (Fri, 15 Apr 2011) | 1 line

SVN_SILENT: summit merge
------------------------------------------------------------------------
r1228073 | ozan | 2011-04-15 18:53:49 +1200 (Fri, 15 Apr 2011) | 1 line

Fix typo
------------------------------------------------------------------------
r1228083 | igungor | 2011-04-15 21:04:24 +1200 (Fri, 15 Apr 2011) | 1 line

update ksxconfig
------------------------------------------------------------------------
r1228085 | ozan | 2011-04-15 21:08:47 +1200 (Fri, 15 Apr 2011) | 1 line

Update translations
------------------------------------------------------------------------
r1228087 | ozan | 2011-04-15 21:11:43 +1200 (Fri, 15 Apr 2011) | 1 line

Update translations
------------------------------------------------------------------------
r1228094 | ozan | 2011-04-15 23:05:28 +1200 (Fri, 15 Apr 2011) | 1 line

kdemultimedia is done
------------------------------------------------------------------------
r1228097 | ozan | 2011-04-15 23:12:33 +1200 (Fri, 15 Apr 2011) | 1 line

Update translations
------------------------------------------------------------------------
r1228098 | pelcak | 2011-04-15 23:17:42 +1200 (Fri, 15 Apr 2011) | 1 line

Update from Summit
------------------------------------------------------------------------
r1228101 | igungor | 2011-04-15 23:48:24 +1200 (Fri, 15 Apr 2011) | 1 line

update translations
------------------------------------------------------------------------
r1228102 | scripty | 2011-04-15 23:53:57 +1200 (Fri, 15 Apr 2011) | 1 line

SVN_SILENT made messages (.pot file)
------------------------------------------------------------------------
r1228103 | scripty | 2011-04-16 00:13:36 +1200 (Sat, 16 Apr 2011) | 1 line

SVN_SILENT made docmessages
------------------------------------------------------------------------
r1228104 | scripty | 2011-04-16 01:45:41 +1200 (Sat, 16 Apr 2011) | 1 line

SVN_SILENT made messages (.po file)
------------------------------------------------------------------------
r1228106 | scripty | 2011-04-16 02:13:47 +1200 (Sat, 16 Apr 2011) | 1 line

SVN_SILENT made messages (x-test)
------------------------------------------------------------------------
r1228116 | yurchor | 2011-04-16 05:32:50 +1200 (Sat, 16 Apr 2011) | 1 line

SVN_SILENT Ukrainian translation update for stable
------------------------------------------------------------------------
r1228123 | glentadakis | 2011-04-16 06:22:37 +1200 (Sat, 16 Apr 2011) | 2 lines

Update translation by Stelios

------------------------------------------------------------------------
r1228124 | glentadakis | 2011-04-16 06:23:26 +1200 (Sat, 16 Apr 2011) | 2 lines

Update translation

------------------------------------------------------------------------
r1228127 | grossard | 2011-04-16 06:57:29 +1200 (Sat, 16 Apr 2011) | 2 lines

cleared some fuzzy

------------------------------------------------------------------------
r1228130 | pino | 2011-04-16 08:04:40 +1200 (Sat, 16 Apr 2011) | 2 lines

switch blueevil stable branch to 1.0, which is "equivalent" to stable

------------------------------------------------------------------------
r1228137 | zpintar | 2011-04-16 13:33:36 +1200 (Sat, 16 Apr 2011) | 1 line

Updated Croatian translations for kde4-stable.
------------------------------------------------------------------------
r1228144 | okushi | 2011-04-16 16:10:34 +1200 (Sat, 16 Apr 2011) | 1 line

SVN_SILENT: summit merge
------------------------------------------------------------------------
r1228146 | mwiese | 2011-04-16 18:13:34 +1200 (Sat, 16 Apr 2011) | 1 line

Translation and maintenance
------------------------------------------------------------------------
r1228251 | pino | 2011-04-16 22:18:19 +1200 (Sat, 16 Apr 2011) | 4 lines

save few translations from libkdeedu.po
 
CCMAIL: federico.zenith@member.fsf.org

------------------------------------------------------------------------
r1228256 | scripty | 2011-04-17 00:13:06 +1200 (Sun, 17 Apr 2011) | 1 line

SVN_SILENT made messages (.pot file)
------------------------------------------------------------------------
r1228261 | scripty | 2011-04-17 01:55:49 +1200 (Sun, 17 Apr 2011) | 1 line

SVN_SILENT made messages (.po file)
------------------------------------------------------------------------
r1228269 | mrybczyn | 2011-04-17 05:06:06 +1200 (Sun, 17 Apr 2011) | 1 line

Translation update (Michal Lachowski)
------------------------------------------------------------------------
r1228272 | mrybczyn | 2011-04-17 06:02:34 +1200 (Sun, 17 Apr 2011) | 1 line

Spelling fix: tą->tę (suggested by Marcin Szczepanski)
------------------------------------------------------------------------
r1228284 | okushi | 2011-04-17 11:53:00 +1200 (Sun, 17 Apr 2011) | 1 line

SVN_SILENT: summit merge
------------------------------------------------------------------------
r1228287 | okushi | 2011-04-17 12:36:44 +1200 (Sun, 17 Apr 2011) | 1 line

SVN_SILENT: summit scatter kdeedu
------------------------------------------------------------------------
r1228290 | okushi | 2011-04-17 12:57:19 +1200 (Sun, 17 Apr 2011) | 1 line

SVN_SILENT: summit scatter kdegraphics
------------------------------------------------------------------------
r1228295 | zpintar | 2011-04-17 13:35:18 +1200 (Sun, 17 Apr 2011) | 1 line

Updated Croatian translations for kde4-stable.
------------------------------------------------------------------------
r1228310 | glodenis | 2011-04-17 22:26:02 +1200 (Sun, 17 Apr 2011) | 2 lines

completed translation

------------------------------------------------------------------------
r1228314 | mgama | 2011-04-17 22:51:26 +1200 (Sun, 17 Apr 2011) | 1 line

Updating pt_BR translations
------------------------------------------------------------------------
r1228316 | scripty | 2011-04-17 23:15:18 +1200 (Sun, 17 Apr 2011) | 1 line

SVN_SILENT made messages (.pot file)
------------------------------------------------------------------------
r1228317 | scripty | 2011-04-17 23:16:51 +1200 (Sun, 17 Apr 2011) | 1 line

SVN_SILENT made messages (desktop*.pot file committed)
------------------------------------------------------------------------
r1228318 | schwarzer | 2011-04-17 23:26:26 +1200 (Sun, 17 Apr 2011) | 1 line

translation update
------------------------------------------------------------------------
r1228320 | fric | 2011-04-17 23:40:36 +1200 (Sun, 17 Apr 2011) | 1 line

Updated Slovak translation
------------------------------------------------------------------------
r1228325 | scripty | 2011-04-18 01:03:48 +1200 (Mon, 18 Apr 2011) | 1 line

SVN_SILENT made messages (.po file)
------------------------------------------------------------------------
r1228328 | alvarenga | 2011-04-18 01:35:04 +1200 (Mon, 18 Apr 2011) | 1 line

[KDE-pt_BR]
------------------------------------------------------------------------
r1228332 | schwarzer | 2011-04-18 02:33:29 +1200 (Mon, 18 Apr 2011) | 1 line

Translation update by Hendrik Knackstedt
------------------------------------------------------------------------
r1228334 | scripty | 2011-04-18 03:04:31 +1200 (Mon, 18 Apr 2011) | 1 line

check_po_files
------------------------------------------------------------------------
r1228341 | ecuadra | 2011-04-18 06:20:54 +1200 (Mon, 18 Apr 2011) | 1 line

SVN_SILENT Spanish translation update
------------------------------------------------------------------------
r1228353 | zepires | 2011-04-18 07:50:30 +1200 (Mon, 18 Apr 2011) | 1 line

Updates on BRANCH for now
------------------------------------------------------------------------
r1228368 | sairan | 2011-04-18 08:57:30 +1200 (Mon, 18 Apr 2011) | 1 line

add Kazakh translations
------------------------------------------------------------------------
r1228369 | sairan | 2011-04-18 08:57:45 +1200 (Mon, 18 Apr 2011) | 1 line

SVN_SILENT translations update
------------------------------------------------------------------------
r1228370 | ilic | 2011-04-18 09:01:35 +1200 (Mon, 18 Apr 2011) | 1 line

Summit scatter.
------------------------------------------------------------------------
r1228373 | fdekruijf | 2011-04-18 09:32:37 +1200 (Mon, 18 Apr 2011) | 1 line

update
------------------------------------------------------------------------
r1228380 | sairan | 2011-04-18 10:48:59 +1200 (Mon, 18 Apr 2011) | 1 line

SVN_SILENT translations update
------------------------------------------------------------------------
r1228381 | aspotashev | 2011-04-18 11:17:44 +1200 (Mon, 18 Apr 2011) | 2 lines

SVN_SILENT Update, fix.

------------------------------------------------------------------------
r1228386 | zpintar | 2011-04-18 13:35:13 +1200 (Mon, 18 Apr 2011) | 1 line

Updated Croatian translations for kde4-stable.
------------------------------------------------------------------------
r1228396 | glentadakis | 2011-04-18 17:07:24 +1200 (Mon, 18 Apr 2011) | 2 lines

Update translation by Stelios

------------------------------------------------------------------------
r1228412 | igungor | 2011-04-18 20:38:39 +1200 (Mon, 18 Apr 2011) | 1 line

update translations.
------------------------------------------------------------------------
r1228416 | igungor | 2011-04-18 20:54:54 +1200 (Mon, 18 Apr 2011) | 1 line

update translations.
------------------------------------------------------------------------
r1228417 | pelcak | 2011-04-18 20:58:14 +1200 (Mon, 18 Apr 2011) | 1 line

Update from Summit
------------------------------------------------------------------------
r1228423 | scripty | 2011-04-18 23:20:53 +1200 (Mon, 18 Apr 2011) | 1 line

SVN_SILENT made messages (.pot file)
------------------------------------------------------------------------
r1228424 | scripty | 2011-04-18 23:22:28 +1200 (Mon, 18 Apr 2011) | 1 line

SVN_SILENT made messages (desktop*.pot file committed)
------------------------------------------------------------------------
r1228425 | igungor | 2011-04-18 23:53:54 +1200 (Mon, 18 Apr 2011) | 1 line

fix typo.
------------------------------------------------------------------------
r1228429 | scripty | 2011-04-19 00:58:49 +1200 (Tue, 19 Apr 2011) | 1 line

SVN_SILENT made messages (.po file)
------------------------------------------------------------------------
r1228431 | laane | 2011-04-19 01:03:34 +1200 (Tue, 19 Apr 2011) | 4 lines


Uuendused.


------------------------------------------------------------------------
r1228432 | scripty | 2011-04-19 01:25:38 +1200 (Tue, 19 Apr 2011) | 1 line

SVN_SILENT made messages (x-test)
------------------------------------------------------------------------
r1228437 | pelcak | 2011-04-19 01:54:25 +1200 (Tue, 19 Apr 2011) | 1 line

Update from Summit
------------------------------------------------------------------------
r1228443 | scripty | 2011-04-19 02:57:37 +1200 (Tue, 19 Apr 2011) | 1 line

check_po_files
------------------------------------------------------------------------
r1228457 | sveinki | 2011-04-19 06:30:26 +1200 (Tue, 19 Apr 2011) | 1 line

lausleg yfirferð
------------------------------------------------------------------------
r1228458 | sveinki | 2011-04-19 06:30:53 +1200 (Tue, 19 Apr 2011) | 1 line

Klárað
------------------------------------------------------------------------
r1228459 | sveinki | 2011-04-19 06:33:01 +1200 (Tue, 19 Apr 2011) | 1 line

ýmislegt smálegt
------------------------------------------------------------------------
r1228462 | jferrer | 2011-04-19 07:34:23 +1200 (Tue, 19 Apr 2011) | 2 lines

kdebase translated at 100%

------------------------------------------------------------------------
r1228467 | fdekruijf | 2011-04-19 08:46:07 +1200 (Tue, 19 Apr 2011) | 1 line

update
------------------------------------------------------------------------
r1228470 | sairan | 2011-04-19 10:12:55 +1200 (Tue, 19 Apr 2011) | 1 line

SVN_SILENT translations update
------------------------------------------------------------------------
r1228480 | zpintar | 2011-04-19 13:35:13 +1200 (Tue, 19 Apr 2011) | 1 line

Updated Croatian translations for kde4-stable.
------------------------------------------------------------------------
r1228506 | scripty | 2011-04-20 01:02:48 +1200 (Wed, 20 Apr 2011) | 1 line

SVN_SILENT made messages (.pot file)
------------------------------------------------------------------------
r1228507 | scripty | 2011-04-20 01:04:23 +1200 (Wed, 20 Apr 2011) | 1 line

SVN_SILENT made messages (desktop*.pot file committed)
------------------------------------------------------------------------
r1228511 | ilic | 2011-04-20 02:23:12 +1200 (Wed, 20 Apr 2011) | 1 line

Merge.
------------------------------------------------------------------------
r1228512 | scripty | 2011-04-20 02:47:53 +1200 (Wed, 20 Apr 2011) | 1 line

SVN_SILENT made messages (.po file)
------------------------------------------------------------------------
r1228515 | yurchor | 2011-04-20 03:49:56 +1200 (Wed, 20 Apr 2011) | 1 line

SVN_SILENT Ukrainian translation update for stable
------------------------------------------------------------------------
r1228516 | scripty | 2011-04-20 04:47:34 +1200 (Wed, 20 Apr 2011) | 1 line

check_po_files
------------------------------------------------------------------------
r1228522 | kristofk | 2011-04-20 06:57:52 +1200 (Wed, 20 Apr 2011) | 1 line

SVN_SILENT Hungarian translation updated
------------------------------------------------------------------------
r1228524 | sairan | 2011-04-20 07:04:57 +1200 (Wed, 20 Apr 2011) | 1 line

SVN_SILENT translations update
------------------------------------------------------------------------
r1228526 | kristofk | 2011-04-20 07:20:09 +1200 (Wed, 20 Apr 2011) | 1 line

SVN_SILENT Hungarian translation updated
------------------------------------------------------------------------
r1228536 | sairan | 2011-04-20 09:29:18 +1200 (Wed, 20 Apr 2011) | 1 line

SVN_SILENT translations update
------------------------------------------------------------------------
r1228538 | fdekruijf | 2011-04-20 10:02:40 +1200 (Wed, 20 Apr 2011) | 1 line

update
------------------------------------------------------------------------
r1228542 | pino | 2011-04-20 11:00:12 +1200 (Wed, 20 Apr 2011) | 4 lines

fix malformed msgstr

CCMAIL: sveinki@nett.is

------------------------------------------------------------------------
r1228550 | zpintar | 2011-04-20 13:34:47 +1200 (Wed, 20 Apr 2011) | 1 line

Updated Croatian translations for kde4-stable.
------------------------------------------------------------------------
r1228557 | okushi | 2011-04-20 16:23:29 +1200 (Wed, 20 Apr 2011) | 1 line

SVN_SILENT: summit merge
------------------------------------------------------------------------
r1228558 | kenkovaa | 2011-04-20 18:01:00 +1200 (Wed, 20 Apr 2011) | 2 lines

Updates from Tommi

------------------------------------------------------------------------
r1228561 | franklin | 2011-04-20 18:49:03 +1200 (Wed, 20 Apr 2011) | 1 line

20110420 committed by Franklin
------------------------------------------------------------------------
r1228564 | pelcak | 2011-04-20 19:30:20 +1200 (Wed, 20 Apr 2011) | 1 line

Update from Summit
------------------------------------------------------------------------
r1228571 | sveinki | 2011-04-20 22:13:39 +1200 (Wed, 20 Apr 2011) | 1 line

lausleg yfirferð
------------------------------------------------------------------------
r1228572 | schwarzer | 2011-04-20 22:21:08 +1200 (Wed, 20 Apr 2011) | 1 line

Minor translation update.
------------------------------------------------------------------------
r1228577 | scripty | 2011-04-20 23:48:16 +1200 (Wed, 20 Apr 2011) | 1 line

SVN_SILENT made messages (.pot file)
------------------------------------------------------------------------
r1228578 | scripty | 2011-04-20 23:49:56 +1200 (Wed, 20 Apr 2011) | 1 line

SVN_SILENT made messages (desktop*.pot file committed)
------------------------------------------------------------------------
r1228582 | scripty | 2011-04-21 01:38:23 +1200 (Thu, 21 Apr 2011) | 1 line

SVN_SILENT made messages (.po file)
------------------------------------------------------------------------
r1228583 | pelcak | 2011-04-21 01:44:11 +1200 (Thu, 21 Apr 2011) | 1 line

Update from Summit
------------------------------------------------------------------------
r1228590 | scripty | 2011-04-21 03:39:57 +1200 (Thu, 21 Apr 2011) | 1 line

check_po_files
------------------------------------------------------------------------
r1228592 | glentadakis | 2011-04-21 05:27:05 +1200 (Thu, 21 Apr 2011) | 2 lines

Update translation by Nikolaos Pantazis

------------------------------------------------------------------------
r1228599 | sairan | 2011-04-21 09:57:23 +1200 (Thu, 21 Apr 2011) | 1 line

add Kazakh translations
------------------------------------------------------------------------
r1228600 | sairan | 2011-04-21 09:57:34 +1200 (Thu, 21 Apr 2011) | 1 line

SVN_SILENT translations update
------------------------------------------------------------------------
r1228613 | zpintar | 2011-04-21 13:34:14 +1200 (Thu, 21 Apr 2011) | 1 line

Updated Croatian translations for kde4-stable.
------------------------------------------------------------------------
r1228616 | okushi | 2011-04-21 16:55:15 +1200 (Thu, 21 Apr 2011) | 1 line

SVN_SILENT: summit merge
------------------------------------------------------------------------
r1228638 | zepires | 2011-04-21 21:53:14 +1200 (Thu, 21 Apr 2011) | 1 line

Updates on BRANCH for now
------------------------------------------------------------------------
r1228639 | zepires | 2011-04-21 21:54:39 +1200 (Thu, 21 Apr 2011) | 1 line

Updates on BRANCH for now
------------------------------------------------------------------------
r1228660 | scripty | 2011-04-21 23:33:00 +1200 (Thu, 21 Apr 2011) | 1 line

SVN_SILENT made messages (.pot file)
------------------------------------------------------------------------
r1228661 | scripty | 2011-04-21 23:34:37 +1200 (Thu, 21 Apr 2011) | 1 line

SVN_SILENT made messages (desktop*.pot file committed)
------------------------------------------------------------------------
r1228663 | scripty | 2011-04-22 01:26:05 +1200 (Fri, 22 Apr 2011) | 1 line

SVN_SILENT made messages (.po file)
------------------------------------------------------------------------
r1228668 | jferrer | 2011-04-22 03:59:55 +1200 (Fri, 22 Apr 2011) | 2 lines

New translation for "beep": "so d'avís", as we agreed on kde-i18n-ca@kde.org

------------------------------------------------------------------------
r1228670 | jferrer | 2011-04-22 04:14:01 +1200 (Fri, 22 Apr 2011) | 2 lines

Translation for "widget": "estri" (not "giny").

------------------------------------------------------------------------
r1228674 | sairan | 2011-04-22 06:35:51 +1200 (Fri, 22 Apr 2011) | 1 line

SVN_SILENT translations update
------------------------------------------------------------------------
r1228676 | jferrer | 2011-04-22 07:58:36 +1200 (Fri, 22 Apr 2011) | 3 lines

New translation for "tutorial": "guia d'aprenentatge", as we agreed on kde-i18n-ca@kde.org


------------------------------------------------------------------------
r1228681 | sairan | 2011-04-22 10:53:41 +1200 (Fri, 22 Apr 2011) | 1 line

add Kazakh translations
------------------------------------------------------------------------
r1228683 | sairan | 2011-04-22 11:00:10 +1200 (Fri, 22 Apr 2011) | 1 line

SVN_SILENT translations update
------------------------------------------------------------------------
r1228686 | sairan | 2011-04-22 11:17:28 +1200 (Fri, 22 Apr 2011) | 1 line

SVN_SILENT translations update
------------------------------------------------------------------------
r1228689 | alvarenga | 2011-04-22 12:33:52 +1200 (Fri, 22 Apr 2011) | 1 line

[KDE-pt_BR]
------------------------------------------------------------------------
r1228693 | zpintar | 2011-04-22 13:35:48 +1200 (Fri, 22 Apr 2011) | 1 line

Updated Croatian translations for kde4-stable.
------------------------------------------------------------------------
r1228697 | okushi | 2011-04-22 16:45:32 +1200 (Fri, 22 Apr 2011) | 1 line

SVN_SILENT: summit merge
------------------------------------------------------------------------
r1228699 | okushi | 2011-04-22 17:35:57 +1200 (Fri, 22 Apr 2011) | 1 line

SVN_SILENT: summit scatter kdebase
------------------------------------------------------------------------
r1228765 | piranzo | 2011-04-22 19:07:56 +1200 (Fri, 22 Apr 2011) | 1 line


------------------------------------------------------------------------
r1228799 | fdekruijf | 2011-04-22 20:16:25 +1200 (Fri, 22 Apr 2011) | 1 line

update
------------------------------------------------------------------------
r1228801 | iastrubni | 2011-04-22 20:38:55 +1200 (Fri, 22 Apr 2011) | 3 lines

Updates from Liel (sorry for the delay)
CCMAIL: lielft@gmail.com, kde-l10n-he@kde.org

------------------------------------------------------------------------
r1228809 | okushi | 2011-04-22 21:48:38 +1200 (Fri, 22 Apr 2011) | 1 line

SVN_SILENT: summit scatter kdebase
------------------------------------------------------------------------
r1228811 | fzenith | 2011-04-22 22:12:32 +1200 (Fri, 22 Apr 2011) | 1 line

Update
------------------------------------------------------------------------
r1228814 | sveinki | 2011-04-22 22:43:17 +1200 (Fri, 22 Apr 2011) | 1 line

ýmislegt smálegt
------------------------------------------------------------------------
r1228815 | sveinki | 2011-04-22 22:51:33 +1200 (Fri, 22 Apr 2011) | 1 line

ýmislegt smálegt
------------------------------------------------------------------------
r1228822 | scripty | 2011-04-23 00:23:38 +1200 (Sat, 23 Apr 2011) | 1 line

SVN_SILENT made messages (.pot file)
------------------------------------------------------------------------
r1228825 | schwarzer | 2011-04-23 00:31:32 +1200 (Sat, 23 Apr 2011) | 1 line

temp
------------------------------------------------------------------------
r1228826 | schwarzer | 2011-04-23 00:33:40 +1200 (Sat, 23 Apr 2011) | 3 lines

Revert "temp"

Oops.
------------------------------------------------------------------------
r1228831 | awolf | 2011-04-23 00:43:27 +1200 (Sat, 23 Apr 2011) | 1 line

SVN_SILENT: Update KStars translation
------------------------------------------------------------------------
r1228833 | scripty | 2011-04-23 02:15:49 +1200 (Sat, 23 Apr 2011) | 1 line

SVN_SILENT made messages (.po file)
------------------------------------------------------------------------
r1228836 | sora | 2011-04-23 02:39:04 +1200 (Sat, 23 Apr 2011) | 1 line

fixed fuzzy
------------------------------------------------------------------------
r1228838 | jferrer | 2011-04-23 03:05:26 +1200 (Sat, 23 Apr 2011) | 2 lines

Updates after check-rules

------------------------------------------------------------------------
r1228844 | scripty | 2011-04-23 04:23:50 +1200 (Sat, 23 Apr 2011) | 1 line

check_po_files
------------------------------------------------------------------------
r1228849 | bellaperez | 2011-04-23 04:53:16 +1200 (Sat, 23 Apr 2011) | 2 lines

Minor fixes
CCMAIL: kde-i18n-ca@kde.org
------------------------------------------------------------------------
r1228872 | fdekruijf | 2011-04-23 09:11:51 +1200 (Sat, 23 Apr 2011) | 1 line

update
------------------------------------------------------------------------
r1228874 | bellaperez | 2011-04-23 09:40:30 +1200 (Sat, 23 Apr 2011) | 1 line

Major updates
------------------------------------------------------------------------
r1228875 | bellaperez | 2011-04-23 09:48:16 +1200 (Sat, 23 Apr 2011) | 1 line

Major updates - I'm leaving this file :)
------------------------------------------------------------------------
r1228884 | zpintar | 2011-04-23 13:36:08 +1200 (Sat, 23 Apr 2011) | 1 line

Updated Croatian translations for kde4-stable.
------------------------------------------------------------------------
r1228889 | alvarenga | 2011-04-23 15:22:51 +1200 (Sat, 23 Apr 2011) | 1 line

[KDE-pt_BR]
------------------------------------------------------------------------
r1228899 | scripty | 2011-04-23 23:54:34 +1200 (Sat, 23 Apr 2011) | 1 line

SVN_SILENT made messages (.pot file)
------------------------------------------------------------------------
r1228900 | scripty | 2011-04-23 23:56:23 +1200 (Sat, 23 Apr 2011) | 1 line

SVN_SILENT made messages (desktop*.pot file committed)
------------------------------------------------------------------------
r1228905 | schlander | 2011-04-24 00:42:35 +1200 (Sun, 24 Apr 2011) | 2 lines

translation update

------------------------------------------------------------------------
r1228911 | schwarzer | 2011-04-24 01:00:40 +1200 (Sun, 24 Apr 2011) | 1 line

Backport: Translation update.
------------------------------------------------------------------------
r1228917 | scripty | 2011-04-24 01:53:27 +1200 (Sun, 24 Apr 2011) | 1 line

SVN_SILENT made messages (.po file)
------------------------------------------------------------------------
r1228918 | markuss | 2011-04-24 02:51:38 +1200 (Sun, 24 Apr 2011) | 2 lines

'Fallback' -> 'Rückfall' (not 'Notfall')
Unify translation -- not 'Treiber'.
------------------------------------------------------------------------
r1228920 | aspotashev | 2011-04-24 02:55:41 +1200 (Sun, 24 Apr 2011) | 2 lines

SVN_SILENT Update messages/kdepimlibs

------------------------------------------------------------------------
r1228925 | mrybczyn | 2011-04-24 03:14:24 +1200 (Sun, 24 Apr 2011) | 1 line

Fix effect strengh translation. Suggested by Marek Pasnikowski
------------------------------------------------------------------------
r1228926 | bellaperez | 2011-04-24 03:16:28 +1200 (Sun, 24 Apr 2011) | 1 line

I'm delete old folder.
------------------------------------------------------------------------
r1228928 | schwarzer | 2011-04-24 03:17:34 +1200 (Sun, 24 Apr 2011) | 1 line

Backport: Translation update.
------------------------------------------------------------------------
r1228931 | scripty | 2011-04-24 03:54:37 +1200 (Sun, 24 Apr 2011) | 1 line

check_po_files
------------------------------------------------------------------------
r1228932 | mrybczyn | 2011-04-24 04:04:11 +1200 (Sun, 24 Apr 2011) | 1 line

Translation update (Katarzyna Gierlach)
------------------------------------------------------------------------
r1228933 | mrybczyn | 2011-04-24 04:07:01 +1200 (Sun, 24 Apr 2011) | 1 line

Translation update (Katarzyna Gierlach)
------------------------------------------------------------------------
r1228934 | yurchor | 2011-04-24 04:28:31 +1200 (Sun, 24 Apr 2011) | 1 line

SVN_SILENT Ukrainian translation update for stable
------------------------------------------------------------------------
r1228937 | jferrer | 2011-04-24 05:05:03 +1200 (Sun, 24 Apr 2011) | 2 lines

Update by Josep Ma. Ferrer

------------------------------------------------------------------------
r1228940 | bellaperez | 2011-04-24 06:06:46 +1200 (Sun, 24 Apr 2011) | 1 line

Update changes from ca pology rules
------------------------------------------------------------------------
r1228941 | okushi | 2011-04-24 06:11:25 +1200 (Sun, 24 Apr 2011) | 1 line

SVN_SILENT: summit merge
------------------------------------------------------------------------
r1228951 | aspotashev | 2011-04-24 09:27:16 +1200 (Sun, 24 Apr 2011) | 2 lines

SVN_SILENT Update messages/kdepimlibs

------------------------------------------------------------------------
r1228953 | aspotashev | 2011-04-24 09:45:47 +1200 (Sun, 24 Apr 2011) | 2 lines

SVN_SILENT Fix mistakes in messages/kdepimlibs

------------------------------------------------------------------------
r1228954 | sairan | 2011-04-24 09:59:34 +1200 (Sun, 24 Apr 2011) | 1 line

SVN_SILENT translations update
------------------------------------------------------------------------
r1228958 | okushi | 2011-04-24 10:33:54 +1200 (Sun, 24 Apr 2011) | 1 line

SVN_SILENT: summit scatter step and step.qt
------------------------------------------------------------------------
r1228960 | sairan | 2011-04-24 10:34:32 +1200 (Sun, 24 Apr 2011) | 1 line

add Kazakh translations
------------------------------------------------------------------------
r1228961 | sairan | 2011-04-24 10:34:44 +1200 (Sun, 24 Apr 2011) | 1 line

SVN_SILENT translations update
------------------------------------------------------------------------
r1228969 | zpintar | 2011-04-24 13:34:11 +1200 (Sun, 24 Apr 2011) | 1 line

Updated Croatian translations for kde4-stable.
------------------------------------------------------------------------
r1228985 | fzenith | 2011-04-24 20:29:45 +1200 (Sun, 24 Apr 2011) | 1 line

New files, update, regeneration
------------------------------------------------------------------------
r1228993 | montanaro | 2011-04-24 21:17:19 +1200 (Sun, 24 Apr 2011) | 2 lines

Updates

------------------------------------------------------------------------
r1228994 | montanaro | 2011-04-24 21:18:29 +1200 (Sun, 24 Apr 2011) | 2 lines

Updates

------------------------------------------------------------------------
r1228995 | schwarzer | 2011-04-24 22:05:38 +1200 (Sun, 24 Apr 2011) | 3 lines

Revert "'Fallback' -> 'Rückfall' (not 'Notfall')"

Needs discussion first.
------------------------------------------------------------------------
r1229000 | fzenith | 2011-04-24 22:25:02 +1200 (Sun, 24 Apr 2011) | 1 line

Update, regeneration
------------------------------------------------------------------------
r1229001 | ilic | 2011-04-24 22:37:13 +1200 (Sun, 24 Apr 2011) | 1 line

Merge.
------------------------------------------------------------------------
r1229004 | schwarzer | 2011-04-24 23:32:25 +1200 (Sun, 24 Apr 2011) | 1 line

Backport: Translation update.
------------------------------------------------------------------------
r1229005 | scripty | 2011-04-24 23:33:12 +1200 (Sun, 24 Apr 2011) | 1 line

SVN_SILENT made messages (.pot file)
------------------------------------------------------------------------
r1229008 | scripty | 2011-04-25 01:26:36 +1200 (Mon, 25 Apr 2011) | 1 line

SVN_SILENT made messages (.po file)
------------------------------------------------------------------------
r1229012 | scripty | 2011-04-25 03:30:20 +1200 (Mon, 25 Apr 2011) | 1 line

check_po_files
------------------------------------------------------------------------
r1229019 | okushi | 2011-04-25 07:24:14 +1200 (Mon, 25 Apr 2011) | 1 line

SVN_SILENT: summit merge
------------------------------------------------------------------------
r1229020 | okushi | 2011-04-25 08:01:49 +1200 (Mon, 25 Apr 2011) | 1 line

SVN_SILENT: summit scatter
------------------------------------------------------------------------
r1229022 | okushi | 2011-04-25 08:39:53 +1200 (Mon, 25 Apr 2011) | 1 line

SVN_SILENT: summit scatter style fixes
------------------------------------------------------------------------
r1229028 | sairan | 2011-04-25 09:54:37 +1200 (Mon, 25 Apr 2011) | 1 line

add Kazakh translations
------------------------------------------------------------------------
r1229031 | ilic | 2011-04-25 10:00:27 +1200 (Mon, 25 Apr 2011) | 1 line

Pmap updates.
------------------------------------------------------------------------
r1229032 | sairan | 2011-04-25 10:03:17 +1200 (Mon, 25 Apr 2011) | 1 line

SVN_SILENT translations update
------------------------------------------------------------------------
r1229034 | ilic | 2011-04-25 10:04:37 +1200 (Mon, 25 Apr 2011) | 1 line

Summit scatter.
------------------------------------------------------------------------
r1229036 | jferrer | 2011-04-25 11:20:37 +1200 (Mon, 25 Apr 2011) | 2 lines

Updates by Josep Ma. Ferrer

------------------------------------------------------------------------
r1229039 | alvarenga | 2011-04-25 12:32:20 +1200 (Mon, 25 Apr 2011) | 1 line

[KDE-pt_BR]
------------------------------------------------------------------------
r1229043 | zpintar | 2011-04-25 13:35:04 +1200 (Mon, 25 Apr 2011) | 1 line

Updated Croatian translations for kde4-stable.
------------------------------------------------------------------------
r1229055 | fzenith | 2011-04-25 19:13:02 +1200 (Mon, 25 Apr 2011) | 1 line

Doc regeneration
------------------------------------------------------------------------
r1229058 | bellaperez | 2011-04-25 20:27:36 +1200 (Mon, 25 Apr 2011) | 6 lines

Updates to kdeaccessibility:
  From pology rules - <quote> tags
Other changes:
  barbarism: d'immediat -> immediatament
  translator credits: change my email.
CCMAIL: txemaq@gmail.com
------------------------------------------------------------------------
r1229060 | bellaperez | 2011-04-25 20:42:37 +1200 (Mon, 25 Apr 2011) | 5 lines

Updates to kdetoys:
  From pology rules - <quote> tags
Other changes:
  translator credits: change my email.
CCMAIL: txemaq@gmail.com
------------------------------------------------------------------------
r1229063 | bellaperez | 2011-04-25 20:58:36 +1200 (Mon, 25 Apr 2011) | 5 lines

Updates to kdebase-apps (over finished works only):
  From pology rules - <quote> tags
Other changes:
  translator credits: change my email.
CCMAIL: txemaq@gmail.com
------------------------------------------------------------------------
r1229067 | bellaperez | 2011-04-25 21:17:09 +1200 (Mon, 25 Apr 2011) | 8 lines

Updates to kdeedu (over finished works only - KStars):
  From pology rules - <quote> tags
Other changes:
  two barbarism;
    a l'igual que -> igual que
    el dia següent -> l'endemà
  translator credits: change my email.
CCMAIL: txemaq@gmail.com
------------------------------------------------------------------------
r1229072 | bellaperez | 2011-04-25 21:41:03 +1200 (Mon, 25 Apr 2011) | 4 lines

Updates to kdewebdev:
  translator credits: update to new fornat (entity).
  two fuzzy
CCMAIL: manutortosa@gmail.com
------------------------------------------------------------------------
r1229077 | schwarzer | 2011-04-25 22:09:51 +1200 (Mon, 25 Apr 2011) | 7 lines

Revert "Updated German translation a bit as discussed on the mailing list"

1) It was discussed but not decided. "It is correct" is not enough of a
justification if the "wrong" translation is used for years.
2) What about the rest of KDE?

Let's have a proper discussion about that and then do it globally.
------------------------------------------------------------------------
r1229078 | schwarzer | 2011-04-25 22:09:53 +1200 (Mon, 25 Apr 2011) | 1 line

Backport: Translation update.
------------------------------------------------------------------------
r1229079 | schwarzer | 2011-04-25 22:10:55 +1200 (Mon, 25 Apr 2011) | 1 line

Unify translation.
------------------------------------------------------------------------
r1229083 | scripty | 2011-04-25 23:23:25 +1200 (Mon, 25 Apr 2011) | 1 line

SVN_SILENT made messages (.pot file)
------------------------------------------------------------------------
r1229084 | scripty | 2011-04-25 23:24:59 +1200 (Mon, 25 Apr 2011) | 1 line

SVN_SILENT made messages (desktop*.pot file committed)
------------------------------------------------------------------------
r1229085 | fdekruijf | 2011-04-26 01:05:39 +1200 (Tue, 26 Apr 2011) | 1 line

update
------------------------------------------------------------------------
r1229088 | scripty | 2011-04-26 01:12:25 +1200 (Tue, 26 Apr 2011) | 1 line

SVN_SILENT made messages (.po file)
------------------------------------------------------------------------
r1229096 | glentadakis | 2011-04-26 03:46:32 +1200 (Tue, 26 Apr 2011) | 2 lines

Update translation by Stelios

------------------------------------------------------------------------
r1229101 | bellaperez | 2011-04-26 05:12:27 +1200 (Tue, 26 Apr 2011) | 4 lines

Updates to kdemultimedia:
  From pology rules - <quote> tags
Other changes:
  translator credits: change my email.
------------------------------------------------------------------------
r1229103 | bellaperez | 2011-04-26 05:19:43 +1200 (Tue, 26 Apr 2011) | 2 lines

Updates to kdelibs:
  From pology rules - <quote> tags
------------------------------------------------------------------------
r1229106 | bellaperez | 2011-04-26 05:35:36 +1200 (Tue, 26 Apr 2011) | 1 line

I'm delete old folder.
------------------------------------------------------------------------
r1229107 | bellaperez | 2011-04-26 05:45:10 +1200 (Tue, 26 Apr 2011) | 1 line

I'm delete old folders.
------------------------------------------------------------------------
r1229112 | igungor | 2011-04-26 06:58:20 +1200 (Tue, 26 Apr 2011) | 1 line

Fix uraya tiklayin
------------------------------------------------------------------------
r1229114 | igungor | 2011-04-26 06:59:10 +1200 (Tue, 26 Apr 2011) | 1 line

more meaningful
------------------------------------------------------------------------
r1229115 | igungor | 2011-04-26 07:01:56 +1200 (Tue, 26 Apr 2011) | 1 line

Update kalzium translation.
------------------------------------------------------------------------
r1229116 | aspotashev | 2011-04-26 07:03:04 +1200 (Tue, 26 Apr 2011) | 2 lines

SVN_SILENT Update

------------------------------------------------------------------------
r1229120 | jose1711 | 2011-04-26 08:36:03 +1200 (Tue, 26 Apr 2011) | 3 lines

Updated Slovak translation
CCMAIL:lubos.balazovic@gmail.com

------------------------------------------------------------------------
r1229122 | yurchor | 2011-04-26 08:40:18 +1200 (Tue, 26 Apr 2011) | 1 line

SVN_SILENT Ukrainian translation update for stable
------------------------------------------------------------------------
r1229124 | sairan | 2011-04-26 09:53:56 +1200 (Tue, 26 Apr 2011) | 1 line

SVN_SILENT translations update
------------------------------------------------------------------------
r1229125 | omas | 2011-04-26 09:55:30 +1200 (Tue, 26 Apr 2011) | 1 line

Catalan translation updates by Orestes Mas
------------------------------------------------------------------------
r1229126 | montanaro | 2011-04-26 10:08:39 +1200 (Tue, 26 Apr 2011) | 2 lines

Updated

------------------------------------------------------------------------
r1229141 | zpintar | 2011-04-26 13:33:48 +1200 (Tue, 26 Apr 2011) | 1 line

Updated Croatian translations for kde4-stable.
------------------------------------------------------------------------
r1229147 | okushi | 2011-04-26 16:38:21 +1200 (Tue, 26 Apr 2011) | 1 line

SVN_SILENT: summit merge
------------------------------------------------------------------------
r1229149 | glentadakis | 2011-04-26 17:10:34 +1200 (Tue, 26 Apr 2011) | 2 lines

Update translation by Stelios

------------------------------------------------------------------------
r1229155 | pelcak | 2011-04-26 18:27:18 +1200 (Tue, 26 Apr 2011) | 1 line

Update from Summit
------------------------------------------------------------------------
r1229157 | kristofk | 2011-04-26 18:34:59 +1200 (Tue, 26 Apr 2011) | 1 line

SVN_SILENT Hungarian translation updated
------------------------------------------------------------------------
r1229159 | igungor | 2011-04-26 19:02:48 +1200 (Tue, 26 Apr 2011) | 1 line

Update kalzium
------------------------------------------------------------------------
r1229175 | igungor | 2011-04-26 19:40:36 +1200 (Tue, 26 Apr 2011) | 1 line

Update marble.
------------------------------------------------------------------------
r1229236 | igungor | 2011-04-26 20:04:32 +1200 (Tue, 26 Apr 2011) | 1 line

Update translations.
------------------------------------------------------------------------
r1229251 | ozan | 2011-04-26 20:55:05 +1200 (Tue, 26 Apr 2011) | 1 line

Merge updates from trunk
------------------------------------------------------------------------
r1229258 | igungor | 2011-04-26 21:45:43 +1200 (Tue, 26 Apr 2011) | 1 line

folder: klasör, directory: dizin. part 1.
------------------------------------------------------------------------
r1229261 | ozan | 2011-04-26 21:50:52 +1200 (Tue, 26 Apr 2011) | 1 line

Update translations
------------------------------------------------------------------------
r1229266 | pelcak | 2011-04-26 23:05:27 +1200 (Tue, 26 Apr 2011) | 1 line

Update from Summit
------------------------------------------------------------------------
r1229270 | ozan | 2011-04-26 23:24:08 +1200 (Tue, 26 Apr 2011) | 1 line

Update translations
------------------------------------------------------------------------
r1229273 | igungor | 2011-04-26 23:50:42 +1200 (Tue, 26 Apr 2011) | 1 line

folder: klasör, directory: dizin. part 2.
------------------------------------------------------------------------
r1229282 | scripty | 2011-04-27 01:23:59 +1200 (Wed, 27 Apr 2011) | 1 line

SVN_SILENT made messages (.pot file)
------------------------------------------------------------------------
r1229284 | pelcak | 2011-04-27 01:38:23 +1200 (Wed, 27 Apr 2011) | 1 line

Update from Summit
------------------------------------------------------------------------
r1229290 | igungor | 2011-04-27 02:00:59 +1200 (Wed, 27 Apr 2011) | 1 line

folder: klasör, directory: dizin. part 3.
------------------------------------------------------------------------
r1229302 | bellaperez | 2011-04-27 03:14:15 +1200 (Wed, 27 Apr 2011) | 5 lines

Major updates to kdebase-wokspace:
  Update two old docs.
  New documentation.
Other changes:
  translator credits: change my email.
------------------------------------------------------------------------
r1229305 | scripty | 2011-04-27 03:23:51 +1200 (Wed, 27 Apr 2011) | 1 line

SVN_SILENT made messages (.po file)
------------------------------------------------------------------------
r1229320 | bellaperez | 2011-04-27 03:35:37 +1200 (Wed, 27 Apr 2011) | 1 line

OK. I'm fix ksysguard doc.
------------------------------------------------------------------------
r1229326 | ecuadra | 2011-04-27 04:38:37 +1200 (Wed, 27 Apr 2011) | 1 line

SVN_SILENT Spanish translation update
------------------------------------------------------------------------
r1229327 | bellaperez | 2011-04-27 04:41:19 +1200 (Wed, 27 Apr 2011) | 14 lines

Updates to kdesdk (stable branch):
  From pology rules - <quote> tags
  typos into kompare doc
Barbarism:
  tutorial -> guia d'aprenentage
  a l'objecte de «crida» -> a l'objecte «cridat»
  a mida que -> a mesura que
Other changes:
  l10n for the date doc.
  translator credits: update to new fornat (entity).
  translator credits: change my email.

CCMAIL: manutortosa@gmail.com
CCMAIL: txemaq@gmail.com
------------------------------------------------------------------------
r1229329 | bellaperez | 2011-04-27 04:47:40 +1200 (Wed, 27 Apr 2011) | 1 line

Translator credits: change my email.
------------------------------------------------------------------------
r1229331 | scripty | 2011-04-27 05:24:34 +1200 (Wed, 27 Apr 2011) | 1 line

check_po_files
------------------------------------------------------------------------
r1229332 | bellaperez | 2011-04-27 06:11:31 +1200 (Wed, 27 Apr 2011) | 12 lines

Updates to kdenetwork (stable branch):
  Update two manuals.
  From pology rules - <quote> tags
  two typos: safata de sistema -> safata del sistema
Barbarism:
  camí de -> camí cap a
Other changes:
  l10n for the date doc.
  translator credits: update to new fornat (entity).

CCMAIL: rcarreras@caliu.cat
CCMAIL: txemaq@gmail.com
------------------------------------------------------------------------
r1229334 | bellaperez | 2011-04-27 06:21:14 +1200 (Wed, 27 Apr 2011) | 3 lines

Updates: Bookmark -> Adreces d'interès

CCMAIL: kde-i18n-ca@kde.org
------------------------------------------------------------------------
r1229336 | aacid | 2011-04-27 06:33:55 +1200 (Wed, 27 Apr 2011) | 2 lines

bring trunk to stable for kdepim and kdepim-runtime

------------------------------------------------------------------------
r1229337 | aacid | 2011-04-27 06:35:35 +1200 (Wed, 27 Apr 2011) | 2 lines

and now for docmessages

------------------------------------------------------------------------
r1229338 | aacid | 2011-04-27 06:39:28 +1200 (Wed, 27 Apr 2011) | 2 lines

4.6 for kdepim

------------------------------------------------------------------------
r1229350 | sairan | 2011-04-27 09:59:57 +1200 (Wed, 27 Apr 2011) | 1 line

SVN_SILENT translations update
------------------------------------------------------------------------
r1229354 | fdekruijf | 2011-04-27 10:35:55 +1200 (Wed, 27 Apr 2011) | 1 line

update
------------------------------------------------------------------------
r1229356 | bellaperez | 2011-04-27 12:11:13 +1200 (Wed, 27 Apr 2011) | 1 line

Restore and minor updates for this old documentation.
------------------------------------------------------------------------
r1229363 | zpintar | 2011-04-27 13:35:39 +1200 (Wed, 27 Apr 2011) | 1 line

Updated Croatian translations for kde4-stable.
------------------------------------------------------------------------
r1229368 | okushi | 2011-04-27 15:47:15 +1200 (Wed, 27 Apr 2011) | 1 line

SVN_SILENT: summit merge
------------------------------------------------------------------------
r1229369 | okushi | 2011-04-27 16:10:50 +1200 (Wed, 27 Apr 2011) | 1 line

SVN_SILENT: summit scatter
------------------------------------------------------------------------
r1229371 | igungor | 2011-04-27 18:17:40 +1200 (Wed, 27 Apr 2011) | 1 line

folder: klasör, directory: dizin. part 4.
------------------------------------------------------------------------
r1229477 | bellaperez | 2011-04-27 22:12:21 +1200 (Wed, 27 Apr 2011) | 5 lines

Updates to kdepim (stable branch):
  From pology rules - <quote> tags
  Barbarisms

CCMAIL: txemaq@gmail.com
------------------------------------------------------------------------
r1229481 | bellaperez | 2011-04-27 22:33:07 +1200 (Wed, 27 Apr 2011) | 4 lines

Minor updates to kdeutils (stable branch):
  Build documentation

CCMAIL: astals11@terra.es
------------------------------------------------------------------------
r1229488 | igungor | 2011-04-27 23:19:53 +1200 (Wed, 27 Apr 2011) | 1 line

folder: klasör, directory: dizin. Final part..
------------------------------------------------------------------------
r1229515 | igungor | 2011-04-28 01:16:03 +1200 (Thu, 28 Apr 2011) | 1 line

Lower some redundant uppercase letters.
------------------------------------------------------------------------
r1229516 | igungor | 2011-04-28 01:17:57 +1200 (Thu, 28 Apr 2011) | 1 line

Hoşgeldin -> Hoş Geldin
------------------------------------------------------------------------
r1229517 | igungor | 2011-04-28 01:21:09 +1200 (Thu, 28 Apr 2011) | 1 line

Default -> Öntanımlı
------------------------------------------------------------------------
r1229519 | igungor | 2011-04-28 01:23:33 +1200 (Thu, 28 Apr 2011) | 1 line

Default -> Öntanımlı
------------------------------------------------------------------------
r1229520 | igungor | 2011-04-28 01:24:19 +1200 (Thu, 28 Apr 2011) | 1 line

Default -> Öntanımlı
------------------------------------------------------------------------
r1229522 | scripty | 2011-04-28 01:34:12 +1200 (Thu, 28 Apr 2011) | 1 line

SVN_SILENT made messages (.pot file)
------------------------------------------------------------------------
r1229523 | scripty | 2011-04-28 01:36:17 +1200 (Thu, 28 Apr 2011) | 1 line

SVN_SILENT made messages (desktop*.pot file committed)
------------------------------------------------------------------------
r1229528 | scripty | 2011-04-28 01:57:53 +1200 (Thu, 28 Apr 2011) | 1 line

SVN_SILENT made docmessages
------------------------------------------------------------------------
r1229536 | pelcak | 2011-04-28 02:30:18 +1200 (Thu, 28 Apr 2011) | 1 line

Update from Summit
------------------------------------------------------------------------
r1229548 | scripty | 2011-04-28 04:05:11 +1200 (Thu, 28 Apr 2011) | 1 line

SVN_SILENT made messages (.po file)
------------------------------------------------------------------------
r1229554 | yurchor | 2011-04-28 05:07:39 +1200 (Thu, 28 Apr 2011) | 1 line

SVN_SILENT Ukrainian translation update for stable
------------------------------------------------------------------------
r1229558 | scripty | 2011-04-28 06:32:18 +1200 (Thu, 28 Apr 2011) | 1 line

check_po_files
------------------------------------------------------------------------
r1229577 | sairan | 2011-04-28 10:29:14 +1200 (Thu, 28 Apr 2011) | 1 line

SVN_SILENT translations update
------------------------------------------------------------------------
r1229579 | sairan | 2011-04-28 10:47:25 +1200 (Thu, 28 Apr 2011) | 1 line

SVN_SILENT translations update
------------------------------------------------------------------------
r1229588 | zpintar | 2011-04-28 13:38:20 +1200 (Thu, 28 Apr 2011) | 1 line

Updated Croatian translations for kde4-stable.
------------------------------------------------------------------------
r1229605 | fdekruijf | 2011-04-28 20:04:17 +1200 (Thu, 28 Apr 2011) | 1 line

update documentation
------------------------------------------------------------------------
r1229618 | scripty | 2011-04-28 23:48:19 +1200 (Thu, 28 Apr 2011) | 1 line

SVN_SILENT made messages (.pot file)
------------------------------------------------------------------------
r1229619 | scripty | 2011-04-28 23:49:55 +1200 (Thu, 28 Apr 2011) | 1 line

SVN_SILENT made messages (desktop*.pot file committed)
------------------------------------------------------------------------
r1229622 | pelcak | 2011-04-29 00:13:16 +1200 (Fri, 29 Apr 2011) | 1 line

Update from Summit
------------------------------------------------------------------------
